Original Study: Data Analysis
…
## # A tibble: 2 x 4
##   parameter mean_posterior `95lowerCrI` `95higherCrI`
##   <chr>              <dbl>        <dbl>         <dbl>
## 1 Atypical          0.306         0.122         0.504
## 2 Typical          -0.0458       -0.205         0.141

# Extract the posteriors
posteriors1 <- model_hypo1 %>%
  spread_draws(b_trial_typeTypical) %>%
  select(b_trial_typeTypical) %>% 
  gather(key = "parameter", value = "posterior")  

posteriors1

## # A tibble: 4,000 x 2
##    parameter           posterior
##    <chr>                   <dbl>
##  1 b_trial_typeTypical    -0.317
##  2 b_trial_typeTypical    -0.385
##  3 b_trial_typeTypical    -0.448
##  4 b_trial_typeTypical    -0.462
##  5 b_trial_typeTypical    -0.255
##  6 b_trial_typeTypical    -0.256
##  7 b_trial_typeTypical    -0.357
##  8 b_trial_typeTypical    -0.382
##  9 b_trial_typeTypical    -0.194
## 10 b_trial_typeTypical    -0.332
## # ... with 3,990 more rows

posterior1_agg <- posteriors1 %>% 
  mutate(mean_posterior = mean(posterior))

posterior1_agg

## # A tibble: 4,000 x 3
##    parameter           posterior mean_posterior
##    <chr>                   <dbl>          <dbl>
##  1 b_trial_typeTypical    -0.317         -0.352
##  2 b_trial_typeTypical    -0.385         -0.352
##  3 b_trial_typeTypical    -0.448         -0.352
##  4 b_trial_typeTypical    -0.462         -0.352
##  5 b_trial_typeTypical    -0.255         -0.352
##  6 b_trial_typeTypical    -0.256         -0.352
##  7 b_trial_typeTypical    -0.357         -0.352
##  8 b_trial_typeTypical    -0.382         -0.352
##  9 b_trial_typeTypical    -0.194         -0.352
## 10 b_trial_typeTypical    -0.332         -0.352
## # ... with 3,990 more rows
…
## # A tibble: 2 x 4
##   parameter mean_posterior `95lowerCrI` `95higherCrI`
##   <chr>              <dbl>        <dbl>         <dbl>
## 1 Atypical          0.348         0.165        0.523 
## 2 Typical          -0.0736       -0.239        0.0776

# Extract the posteriors
posteriors2 <- model_hypo2 %>%
  spread_draws(b_trial_typeTypical) %>%
  select(b_trial_typeTypical) %>% 
  gather(key = "parameter", value = "posterior")  

posteriors2

## # A tibble: 4,000 x 2
##    parameter           posterior
##    <chr>                   <dbl>
##  1 b_trial_typeTypical    -0.275
##  2 b_trial_typeTypical    -0.621
##  3 b_trial_typeTypical    -0.225
##  4 b_trial_typeTypical    -0.391
##  5 b_trial_typeTypical    -0.243
##  6 b_trial_typeTypical    -0.343
##  7 b_trial_typeTypical    -0.575
##  8 b_trial_typeTypical    -0.389
##  9 b_trial_typeTypical    -0.457
## 10 b_trial_typeTypical    -0.566
## # ... with 3,990 more rows

posterior2_agg <- posteriors2 %>% 
  mutate(mean_posterior = mean(posterior))

posterior2_agg

## # A tibble: 4,000 x 3
##    parameter           posterior mean_posterior
##    <chr>                   <dbl>          <dbl>
##  1 b_trial_typeTypical    -0.275         -0.421
##  2 b_trial_typeTypical    -0.621         -0.421
##  3 b_trial_typeTypical    -0.225         -0.421
##  4 b_trial_typeTypical    -0.391         -0.421
##  5 b_trial_typeTypical    -0.243         -0.421
##  6 b_trial_typeTypical    -0.343         -0.421
##  7 b_trial_typeTypical    -0.575         -0.421
##  8 b_trial_typeTypical    -0.389         -0.421
##  9 b_trial_typeTypical    -0.457         -0.421
## 10 b_trial_typeTypical    -0.566         -0.421
## # ... with 3,990 more rows
…
## # A tibble: 2 x 4
##   parameter mean_posterior `95lowerCrI` `95higherCrI`
##   <chr>              <dbl>        <dbl>         <dbl>
## 1 Atypical          0.221       0.00746         0.433
## 2 Typical          -0.0475     -0.225           0.132

# Extract the posteriors
posteriors3 <- model_hypo3 %>%
  spread_draws(b_trial_typeTypical) %>%
  select(b_trial_typeTypical) %>% 
  gather(key = "parameter", value = "posterior")  

posteriors3

## # A tibble: 4,000 x 2
##    parameter           posterior
##    <chr>                   <dbl>
##  1 b_trial_typeTypical    -0.159
##  2 b_trial_typeTypical    -0.151
##  3 b_trial_typeTypical    -0.127
##  4 b_trial_typeTypical    -0.299
##  5 b_trial_typeTypical    -0.276
##  6 b_trial_typeTypical    -0.576
##  7 b_trial_typeTypical    -0.284
##  8 b_trial_typeTypical    -0.311
##  9 b_trial_typeTypical    -0.375
## 10 b_trial_typeTypical    -0.225
## # ... with 3,990 more rows

posterior3_agg <- posteriors3 %>% 
  mutate(mean_posterior = mean(posterior))

posterior3_agg

## # A tibble: 4,000 x 3
##    parameter           posterior mean_posterior
##    <chr>                   <dbl>          <dbl>
##  1 b_trial_typeTypical    -0.159         -0.268
##  2 b_trial_typeTypical    -0.151         -0.268
##  3 b_trial_typeTypical    -0.127         -0.268
##  4 b_trial_typeTypical    -0.299         -0.268
##  5 b_trial_typeTypical    -0.276         -0.268
##  6 b_trial_typeTypical    -0.576         -0.268
##  7 b_trial_typeTypical    -0.284         -0.268
##  8 b_trial_typeTypical    -0.311         -0.268
##  9 b_trial_typeTypical    -0.375         -0.268
## 10 b_trial_typeTypical    -0.225         -0.268
## # ... with 3,990 more rows
…
## # A tibble: 2 x 4
##   parameter mean_posterior `95lowerCrI` `95higherCrI`
##   <chr>              <dbl>        <dbl>         <dbl>
## 1 Atypical          0.301        0.0785         0.540
## 2 Typical          -0.0684      -0.270          0.143

# Extract the posteriors
posteriors5 <- model_hypo5 %>%
  spread_draws(b_trial_typeTypical) %>%
  select(b_trial_typeTypical) %>% 
  gather(key = "parameter", value = "posterior")  

posteriors5

## # A tibble: 4,000 x 2
##    parameter           posterior
##    <chr>                   <dbl>
##  1 b_trial_typeTypical   -0.500 
##  2 b_trial_typeTypical   -0.655 
##  3 b_trial_typeTypical   -0.412 
##  4 b_trial_typeTypical   -0.386 
##  5 b_trial_typeTypical   -0.480 
##  6 b_trial_typeTypical   -0.429 
##  7 b_trial_typeTypical   -0.641 
##  8 b_trial_typeTypical   -0.0281
##  9 b_trial_typeTypical   -0.346 
## 10 b_trial_typeTypical   -0.326 
## # ... with 3,990 more rows

posterior5_agg <- posteriors5 %>% 
  mutate(mean_posterior = mean(posterior))

posterior5_agg

## # A tibble: 4,000 x 3
##    parameter           posterior mean_posterior
##    <chr>                   <dbl>          <dbl>
##  1 b_trial_typeTypical   -0.500          -0.369
##  2 b_trial_typeTypical   -0.655          -0.369
##  3 b_trial_typeTypical   -0.412          -0.369
##  4 b_trial_typeTypical   -0.386          -0.369
##  5 b_trial_typeTypical   -0.480          -0.369
##  6 b_trial_typeTypical   -0.429          -0.369
##  7 b_trial_typeTypical   -0.641          -0.369
##  8 b_trial_typeTypical   -0.0281         -0.369
##  9 b_trial_typeTypical   -0.346          -0.369
## 10 b_trial_typeTypical   -0.326          -0.369
## # ... with 3,990 more rows
…
## # A tibble: 2 x 4
##   parameter mean_posterior `95lowerCrI` `95higherCrI`
##   <chr>              <dbl>        <dbl>         <dbl>
## 1 Atypical            623.         384.          843.
## 2 Typical             510.         316.          699.

# Extract the posteriors
posteriors6 <- model_hypo6 %>%
  spread_draws(b_trial_typeTypical) %>%
  select(b_trial_typeTypical) %>% 
  gather(key = "parameter", value = "posterior")  

posteriors6

## # A tibble: 4,000 x 2
##    parameter           posterior
##    <chr>                   <dbl>
##  1 b_trial_typeTypical    125.  
##  2 b_trial_typeTypical   -215.  
##  3 b_trial_typeTypical   -136.  
##  4 b_trial_typeTypical   -211.  
##  5 b_trial_typeTypical     78.7 
##  6 b_trial_typeTypical   -137.  
##  7 b_trial_typeTypical     -5.88
##  8 b_trial_typeTypical   -106.  
##  9 b_trial_typeTypical   -162.  
## 10 b_trial_typeTypical   -390.  
## # ... with 3,990 more rows
…
## # A tibble: 2 x 4
##   parameter mean_posterior `95lowerCrI` `95higherCrI`
##   <chr>              <dbl>        <dbl>         <dbl>
## 1 Atypical            72.4         61.6          83.1
## 2 Typical             61.3         51.0          71.6

# Extract the posteriors
posteriors7 <- model_hypo7 %>%
  spread_draws(b_trial_typeTypical) %>%
  select(b_trial_typeTypical) %>% 
  gather(key = "parameter", value = "posterior")  

posteriors7

## # A tibble: 4,000 x 2
##    parameter           posterior
##    <chr>                   <dbl>
##  1 b_trial_typeTypical    -13.0 
##  2 b_trial_typeTypical    -12.4 
##  3 b_trial_typeTypical    -15.0 
##  4 b_trial_typeTypical    -14.1 
##  5 b_trial_typeTypical     -8.79
##  6 b_trial_typeTypical    -10.4 
##  7 b_trial_typeTypical    -12.2 
##  8 b_trial_typeTypical    -11.7 
##  9 b_trial_typeTypical    -14.4 
## 10 b_trial_typeTypical    -12.3 
## # ... with 3,990 more rows

posterior7_agg <- posteriors7 %>% 
  mutate(mean_posterior = mean(posterior))

posterior7_agg

## # A tibble: 4,000 x 3
##    parameter           posterior mean_posterior
##    <chr>                   <dbl>          <dbl>
##  1 b_trial_typeTypical    -13.0           -11.1
##  2 b_trial_typeTypical    -12.4           -11.1
##  3 b_trial_typeTypical    -15.0           -11.1
##  4 b_trial_typeTypical    -14.1           -11.1
##  5 b_trial_typeTypical     -8.79          -11.1
##  6 b_trial_typeTypical    -10.4           -11.1
##  7 b_trial_typeTypical    -12.2           -11.1
##  8 b_trial_typeTypical    -11.7           -11.1
##  9 b_trial_typeTypical    -14.4           -11.1
## 10 b_trial_typeTypical    -12.3           -11.1
## # ... with 3,990 more rows
…
