animal_data_analysis
…
## # A tibble: 2 x 4
##   parameter mean_posterior `95lowerCrI` `95higherCrI`
##   <chr>              <dbl>        <dbl>         <dbl>
## 1 Atypical          0.287        -0.373         1.05 
## 2 Typical          -0.0573       -0.684         0.533

# Extract the posteriors
posteriors1 <- model_hypo1 %>%
  spread_draws(b_trial_typeTypical) %>%
  select(b_trial_typeTypical) %>% 
  gather(key = "parameter", value = "posterior")  

posteriors1

## # A tibble: 4,000 x 2
##    parameter           posterior
##    <chr>                   <dbl>
##  1 b_trial_typeTypical   -0.720 
##  2 b_trial_typeTypical   -0.0900
##  3 b_trial_typeTypical   -0.548 
##  4 b_trial_typeTypical   -0.964 
##  5 b_trial_typeTypical    0.262 
##  6 b_trial_typeTypical   -0.802 
##  7 b_trial_typeTypical   -0.415 
##  8 b_trial_typeTypical    0.315 
##  9 b_trial_typeTypical   -0.591 
## 10 b_trial_typeTypical   -0.652 
## # ... with 3,990 more rows
…
## # A tibble: 2 x 4
##   parameter mean_posterior `95lowerCrI` `95higherCrI`
##   <chr>              <dbl>        <dbl>         <dbl>
## 1 Atypical          0.216        -0.517         0.891
## 2 Typical          -0.0769       -0.640         0.518

# Extract the posteriors
posteriors2 <- model_hypo2 %>%
  spread_draws(b_trial_typeTypical) %>%
  select(b_trial_typeTypical) %>% 
  gather(key = "parameter", value = "posterior")  

posteriors2

## # A tibble: 4,000 x 2
##    parameter           posterior
##    <chr>                   <dbl>
##  1 b_trial_typeTypical   -0.327 
##  2 b_trial_typeTypical    0.0774
##  3 b_trial_typeTypical   -0.185 
##  4 b_trial_typeTypical   -0.224 
##  5 b_trial_typeTypical   -0.671 
##  6 b_trial_typeTypical    0.121 
##  7 b_trial_typeTypical    0.147 
##  8 b_trial_typeTypical    0.479 
##  9 b_trial_typeTypical    0.395 
## 10 b_trial_typeTypical   -0.241 
## # ... with 3,990 more rows
…
## # A tibble: 2 x 4
##   parameter mean_posterior `95lowerCrI` `95higherCrI`
##   <chr>              <dbl>        <dbl>         <dbl>
## 1 Atypical           0.581       -0.373         1.64 
## 2 Typical           -0.126       -1.03          0.857

# Extract the posteriors
posteriors3 <- model_hypo3 %>%
  spread_draws(b_trial_typeTypical) %>%
  select(b_trial_typeTypical) %>% 
  gather(key = "parameter", value = "posterior")  

posteriors3

## # A tibble: 4,000 x 2
##    parameter           posterior
##    <chr>                   <dbl>
##  1 b_trial_typeTypical   -0.763 
##  2 b_trial_typeTypical   -1.03  
##  3 b_trial_typeTypical   -0.124 
##  4 b_trial_typeTypical   -0.908 
##  5 b_trial_typeTypical   -0.936 
##  6 b_trial_typeTypical   -0.613 
##  7 b_trial_typeTypical   -1.16  
##  8 b_trial_typeTypical   -0.0444
##  9 b_trial_typeTypical   -1.18  
## 10 b_trial_typeTypical   -0.569 
## # ... with 3,990 more rows
…
## # A tibble: 2 x 4
##   parameter mean_posterior `95lowerCrI` `95higherCrI`
##   <chr>              <dbl>        <dbl>         <dbl>
## 1 Atypical           0.641       -0.306         1.56 
## 2 Typical           -0.129       -0.970         0.750

# Extract the posteriors
posteriors5 <- model_hypo5 %>%
  spread_draws(b_trial_typeTypical) %>%
  select(b_trial_typeTypical) %>% 
  gather(key = "parameter", value = "posterior")  

posteriors5

## # A tibble: 4,000 x 2
##    parameter           posterior
##    <chr>                   <dbl>
##  1 b_trial_typeTypical    -0.958
##  2 b_trial_typeTypical    -0.251
##  3 b_trial_typeTypical    -1.33 
##  4 b_trial_typeTypical    -0.843
##  5 b_trial_typeTypical    -1.56 
##  6 b_trial_typeTypical    -0.540
##  7 b_trial_typeTypical    -0.557
##  8 b_trial_typeTypical    -1.43 
##  9 b_trial_typeTypical    -0.903
## 10 b_trial_typeTypical    -1.47 
## # ... with 3,990 more rows
…
## # A tibble: 2 x 4
##   parameter mean_posterior `95lowerCrI` `95higherCrI`
##   <chr>              <dbl>        <dbl>         <dbl>
## 1 Atypical            333.       -126.           769.
## 2 Typical             385.         35.5          725.

# Extract the posteriors
posteriors6 <- model_hypo6 %>%
  spread_draws(b_trial_typeTypical) %>%
  select(b_trial_typeTypical) %>% 
  gather(key = "parameter", value = "posterior")  

posteriors6

## # A tibble: 4,000 x 2
##    parameter           posterior
##    <chr>                   <dbl>
##  1 b_trial_typeTypical     -17.1
##  2 b_trial_typeTypical     -29.1
##  3 b_trial_typeTypical    -212. 
##  4 b_trial_typeTypical      12.9
##  5 b_trial_typeTypical    -157. 
##  6 b_trial_typeTypical     582. 
##  7 b_trial_typeTypical    -253. 
##  8 b_trial_typeTypical      71.4
##  9 b_trial_typeTypical     -95.2
## 10 b_trial_typeTypical    -220. 
## # ... with 3,990 more rows
…
## # A tibble: 2 x 4
##   parameter mean_posterior `95lowerCrI` `95higherCrI`
##   <chr>              <dbl>        <dbl>         <dbl>
## 1 Atypical            74.3         55.9          89.9
## 2 Typical             47.9         36.2          57.8

# Extract the posteriors
posteriors7 <- model_hypo7 %>%
  spread_draws(b_trial_typeTypical) %>%
  select(b_trial_typeTypical) %>% 
  gather(key = "parameter", value = "posterior")  

posteriors7

## # A tibble: 4,000 x 2
##    parameter           posterior
##    <chr>                   <dbl>
##  1 b_trial_typeTypical    -23.1 
##  2 b_trial_typeTypical     -8.53
##  3 b_trial_typeTypical    -14.6 
##  4 b_trial_typeTypical    -12.9 
##  5 b_trial_typeTypical    -34.4 
##  6 b_trial_typeTypical    -35.5 
##  7 b_trial_typeTypical    -61.7 
##  8 b_trial_typeTypical    -43.8 
##  9 b_trial_typeTypical    -44.6 
## 10 b_trial_typeTypical    -17.0 
## # ... with 3,990 more rows

posterior7_agg <- posteriors7 %>% 
  mutate(mean_posterior = mean(posterior))

posterior7_agg

## # A tibble: 4,000 x 3
##    parameter           posterior mean_posterior
##    <chr>                   <dbl>          <dbl>
##  1 b_trial_typeTypical    -23.1           -26.4
##  2 b_trial_typeTypical     -8.53          -26.4
##  3 b_trial_typeTypical    -14.6           -26.4
##  4 b_trial_typeTypical    -12.9           -26.4
##  5 b_trial_typeTypical    -34.4           -26.4
##  6 b_trial_typeTypical    -35.5           -26.4
##  7 b_trial_typeTypical    -61.7           -26.4
##  8 b_trial_typeTypical    -43.8           -26.4
##  9 b_trial_typeTypical    -44.6           -26.4
## 10 b_trial_typeTypical    -17.0           -26.4
## # ... with 3,990 more rows
…
