Original Study: Data Cleaning
…
Data of participants who only have an accuracy of 50% will not be taken into account

Exclude all data from participants who complete the experiment in under 500 ms or take longer than 60000 ms

Trials which contain more than three flips along the y-axis will be taken out from the analysis

Exclude trail with seaturtle - (because we messed that one up)

#import data 
xdata_raw <- read_delim("Results_Table_Main.csv", 
    ";", escape_double = FALSE, trim_ws = TRUE)

as.tibble(xdata_raw)

## # A tibble: 2,561 x 33
##    submission_id    MI QUD      RT   age comments correct correctness education
##            <dbl> <dbl> <lgl> <dbl> <dbl> <chr>    <chr>   <chr>       <chr>    
##  1          2141    NA NA     3179    24 <NA>     <NA>    <NA>        Graduate~
##  2          2141    NA NA     2318    24 <NA>     <NA>    <NA>        Graduate~
##  3          2141    10 NA     3157    24 <NA>     Mammal  Correct     Graduate~
##  4          2141   355 NA     2186    24 <NA>     Mammal  Correct     Graduate~
##  5          2141   659 NA     1214    24 <NA>     Mammal  Correct     Graduate~
##  6          2141   447 NA     1778    24 <NA>     Reptile Correct     Graduate~
##  7          2141   525 NA     1338    24 <NA>     Fish    Correct     Graduate~
##  8          2141   471 NA     1692    24 <NA>     Reptile Correct     Graduate~
##  9          2141   385 NA     1323    24 <NA>     Bird    Correct     Graduate~
## 10          2141   409 NA     1662    24 <NA>     Fish    Correct     Graduate~
## # ... with 2,551 more rows, and 24 more variables: endTime <dbl>,
## #   experiment_id <dbl>, gender <chr>, languages <chr>,
## #   mousetrackingDuration <dbl>, mousetrackingStartTime <dbl>,
## #   timestamps_get_response <chr>, xpos_get_response <chr>,
## #   ypos_get_response <chr>, movementDirection <dbl>, option1 <chr>,
## #   option2 <chr>, originX <dbl>, originY <dbl>, question <chr>,
## #   response <chr>, startDate <chr>, startTime <dbl>, startingTime <dbl>,
## #   timeSpent <dbl>, traveledDistance <dbl>, trial_name <chr>,
## #   trial_number <dbl>, typicality <chr>
…
DATA EXCLUSION

##1.Excluding all left-handed participants

#create handedness table to merge with actual data 
#necessary in order to filter out left handed participants
xdata_handedness <- xdata_new %>% 
  select(submission_id, response, trial_name) %>% 
  filter(trial_name == "mouse_question" | trial_name == "hand_question") %>% 
  spread(trial_name, response)  
   
xdata_handedness

## # A tibble: 57 x 3
##    submission_id hand_question mouse_question
##            <dbl> <chr>         <chr>         
##  1          2062 Right         Mouse         
##  2          2063 Right         Mouse         
##  3          2065 Left          Touch         
##  4          2066 Right         Touch         
##  5          2067 Right         Mouse         
##  6          2069 Right         Mouse         
##  7          2076 Right         Touch         
##  8          2078 Right         Mouse         
##  9          2091 Right         Touch         
## 10          2092 Left          Mouse         
## # ... with 47 more rows
…
xdata_main

## # A tibble: 848 x 35
##    submission_id    MI QUD      RT   age comments correct correctness education
##            <dbl> <dbl> <lgl> <dbl> <dbl> <chr>    <chr>   <chr>       <chr>    
##  1          2141   447 NA     1778    24 <NA>     Reptile Correct     Graduate~
##  2          2141   525 NA     1338    24 <NA>     Fish    Correct     Graduate~
##  3          2141   471 NA     1692    24 <NA>     Reptile Correct     Graduate~
##  4          2141   385 NA     1323    24 <NA>     Bird    Correct     Graduate~
##  5          2141   409 NA     1662    24 <NA>     Fish    Correct     Graduate~
##  6          2141   229 NA     1958    24 <NA>     Mammal  Correct     Graduate~
##  7          2141   356 NA     1620    24 <NA>     Amphib~ Correct     Graduate~
##  8          2141    31 NA     1661    24 <NA>     Fish    Incorrect   Graduate~
##  9          2141   417 NA     1456    24 <NA>     Mammal  Incorrect   Graduate~
## 10          2141   276 NA     1433    24 <NA>     Mammal  Correct     Graduate~
## # ... with 838 more rows, and 26 more variables: endTime <dbl>,
## #   experiment_id <dbl>, gender <chr>, languages <chr>,
## #   mousetrackingDuration <dbl>, mousetrackingStartTime <dbl>,
## #   timestamps_get_response <chr>, xpos_get_response <chr>,
## #   ypos_get_response <chr>, movementDirection <dbl>, option1 <chr>,
## #   option2 <chr>, originX <dbl>, originY <dbl>, question <chr>,
## #   response <chr>, startDate <chr>, startTime <dbl>, startingTime <dbl>,
## #   timeSpent <dbl>, traveledDistance <dbl>, trial_name <chr>,
## #   trial_number <dbl>, typicality <chr>, hand_question <chr>,
…
xdata_animal <- xdata_main %>% 
  #only taking correct trials into account
  filter(correctness == "Correct") %>%  
  # taking out subjects who are faster than 500 ms and slower than 1 min
  subset(RT >= 500 & RT <= 60000) %>% 
  #taking out the Seaturtle - because we messed it up! Seaturtles are not amphibians :D
  #taking out subject 2129 -> 10 times incorrect 
  subset(question != "Seaturtle" & submission_id != "2129") %>% 
  #taking out for analysis non-relevant variables
  select(-c(QUD, age, comments, education, MI, gender, languages, experiment_id,option1, option2, response,
            trial_name, trial_number, hand_question))

xdata_animal

## # A tibble: 719 x 21
##    submission_id    RT correct correctness endTime mousetrackingDu~
##            <dbl> <dbl> <chr>   <chr>         <dbl>            <dbl>
##  1          2141  1778 Reptile Correct     1.60e12             1531
##  2          2141  1338 Fish    Correct     1.60e12             1191
##  3          2141  1692 Reptile Correct     1.60e12             1641
##  4          2141  1323 Bird    Correct     1.60e12             1172
##  5          2141  1662 Fish    Correct     1.60e12             1502
##  6          2141  1958 Mammal  Correct     1.60e12             1679
##  7          2141  1620 Amphib~ Correct     1.60e12             1492
##  8          2141  1433 Mammal  Correct     1.60e12             1193
##  9          2141  2060 Mammal  Correct     1.60e12             1881
## 10          2141  1259 Mammal  Correct     1.60e12             1102
## # ... with 709 more rows, and 15 more variables: mousetrackingStartTime <dbl>,
## #   timestamps_get_response <chr>, xpos_get_response <chr>,
## #   ypos_get_response <chr>, movementDirection <dbl>, originX <dbl>,
## #   originY <dbl>, question <chr>, startDate <chr>, startTime <dbl>,
## #   startingTime <dbl>, timeSpent <dbl>, traveledDistance <dbl>,
## #   typicality <chr>, mouse_question <chr>
…
Fig.4: The graph displays the given trajectories from the data for each cluster type.

#store mousetrap object in results
results <- merge(mt_data_animal$data, mt_data_animal$measures, by="mt_id")

#export results in long format for further analysis 
agg_xdata_animal <- mt_export_long(results)

#as tibble for easier handling
as.tibble(agg_xdata_animal)

## # A tibble: 719 x 55
##    mt_id submission_id  RT.x correct correctness endTime mousetrackingDu~
##    <chr>         <dbl> <dbl> <chr>   <chr>         <dbl>            <dbl>
##  1 1              2141  1778 Reptile Correct     1.60e12             1531
##  2 2              2141  1338 Fish    Correct     1.60e12             1191
##  3 3              2141  1692 Reptile Correct     1.60e12             1641
##  4 4              2141  1323 Bird    Correct     1.60e12             1172
##  5 5              2141  1662 Fish    Correct     1.60e12             1502
##  6 6              2141  1958 Mammal  Correct     1.60e12             1679
##  7 7              2141  1620 Amphib~ Correct     1.60e12             1492
##  8 8              2141  1433 Mammal  Correct     1.60e12             1193
##  9 9              2141  2060 Mammal  Correct     1.60e12             1881
## 10 10             2141  1259 Mammal  Correct     1.60e12             1102
## # ... with 709 more rows, and 48 more variables: mousetrackingStartTime <dbl>,
## #   movementDirection <dbl>, originX <dbl>, originY <dbl>, question <chr>,
## #   startDate <chr>, startTime <dbl>, startingTime <dbl>, timeSpent <dbl>,
## #   traveledDistance <dbl>, typicality <chr>, mouse_question <chr>,
## #   prototype_label.x <fct>, xpos_max <dbl>, xpos_min <dbl>, ypos_max <dbl>,
## #   ypos_min <dbl>, MAD <dbl>, MAD_time <dbl>, MD_above <dbl>,
## #   MD_above_time <dbl>, MD_below <dbl>, MD_below_time <dbl>, AD <dbl>,
## #   AUC <dbl>, xpos_flips <dbl>, ypos_flips <dbl>, xpos_reversals <dbl>,
## #   ypos_reversals <dbl>, RT.y <dbl>, initiation_time <dbl>, idle_time <dbl>,
…
