Capital Study: Data Cleaning
…
## # A tibble: 2 x 4
##   parameter mean_posterior `95lowerCrI` `95higherCrI`
##   <chr>              <dbl>        <dbl>         <dbl>
## 1 Atypical          0.399        -0.358         1.15 
## 2 Typical          -0.0689       -0.988         0.900

# Extract the posteriors
posteriors1 <- model_hypo1 %>%
  spread_draws(b_trial_typeTypical) %>%
  select(b_trial_typeTypical) %>% 
  gather(key = "parameter", value = "posterior")  

posteriors1

## # A tibble: 4,000 x 2
##    parameter           posterior
##    <chr>                   <dbl>
##  1 b_trial_typeTypical    -0.329
##  2 b_trial_typeTypical    -0.881
##  3 b_trial_typeTypical    -0.449
##  4 b_trial_typeTypical    -0.328
##  5 b_trial_typeTypical    -0.791
##  6 b_trial_typeTypical    -0.500
##  7 b_trial_typeTypical    -0.873
##  8 b_trial_typeTypical    -0.874
##  9 b_trial_typeTypical    -0.809
## 10 b_trial_typeTypical    -0.449
## # ... with 3,990 more rows
…
## # A tibble: 2 x 4
##   parameter mean_posterior `95lowerCrI` `95higherCrI`
##   <chr>              <dbl>        <dbl>         <dbl>
## 1 Atypical           0.348       -0.372         1.12 
## 2 Typical           -0.123       -0.925         0.710

# Extract the posteriors
posteriors2 <- model_hypo2 %>%
  spread_draws(b_trial_typeTypical) %>%
  select(b_trial_typeTypical) %>% 
  gather(key = "parameter", value = "posterior")  

posteriors2

## # A tibble: 4,000 x 2
##    parameter           posterior
##    <chr>                   <dbl>
##  1 b_trial_typeTypical    -1.06 
##  2 b_trial_typeTypical    -1.16 
##  3 b_trial_typeTypical    -0.763
##  4 b_trial_typeTypical    -1.64 
##  5 b_trial_typeTypical    -0.955
##  6 b_trial_typeTypical    -0.631
##  7 b_trial_typeTypical    -1.56 
##  8 b_trial_typeTypical    -1.38 
##  9 b_trial_typeTypical    -1.84 
## 10 b_trial_typeTypical    -1.16 
## # ... with 3,990 more rows
…
## # A tibble: 2 x 4
##   parameter mean_posterior `95lowerCrI` `95higherCrI`
##   <chr>              <dbl>        <dbl>         <dbl>
## 1 Atypical           1.23         0.156         2.33 
## 2 Typical           -0.332       -1.28          0.614

# Extract the posteriors
posteriors3 <- model_hypo3 %>%
  spread_draws(b_trial_typeTypical) %>%
  select(b_trial_typeTypical) %>% 
  gather(key = "parameter", value = "posterior")  

posteriors3

## # A tibble: 4,000 x 2
##    parameter           posterior
##    <chr>                   <dbl>
##  1 b_trial_typeTypical     -2.18
##  2 b_trial_typeTypical     -2.48
##  3 b_trial_typeTypical     -2.18
##  4 b_trial_typeTypical     -2.20
##  5 b_trial_typeTypical     -2.17
##  6 b_trial_typeTypical     -2.06
##  7 b_trial_typeTypical     -2.26
##  8 b_trial_typeTypical     -2.21
##  9 b_trial_typeTypical     -1.79
## 10 b_trial_typeTypical     -2.05
## # ... with 3,990 more rows
…
## # A tibble: 2 x 4
##   parameter mean_posterior `95lowerCrI` `95higherCrI`
##   <chr>              <dbl>        <dbl>         <dbl>
## 1 Atypical            7.87         7.48          8.24
## 2 Typical             7.33         6.96          7.67

# Extract the posteriors
posteriors5 <- model_hypo5 %>%
  spread_draws(b_trial_typeTypical) %>%
  select(b_trial_typeTypical) %>% 
  gather(key = "parameter", value = "posterior")  

posteriors5

## # A tibble: 4,000 x 2
##    parameter           posterior
##    <chr>                   <dbl>
##  1 b_trial_typeTypical    -0.613
##  2 b_trial_typeTypical    -0.376
##  3 b_trial_typeTypical    -0.766
##  4 b_trial_typeTypical    -0.816
##  5 b_trial_typeTypical    -0.756
##  6 b_trial_typeTypical    -0.870
##  7 b_trial_typeTypical    -0.410
##  8 b_trial_typeTypical    -0.786
##  9 b_trial_typeTypical    -0.410
## 10 b_trial_typeTypical    -0.453
## # ... with 3,990 more rows
…
## # A tibble: 2 x 4
##   parameter mean_posterior `95lowerCrI` `95higherCrI`
##   <chr>              <dbl>        <dbl>         <dbl>
## 1 Atypical           0.678       -0.332         1.75 
## 2 Typical           -0.214       -1.26          0.817

# Extract the posteriors
posteriors6 <- model_hypo6 %>%
  spread_draws(b_trial_typeTypical) %>%
  select(b_trial_typeTypical) %>% 
  gather(key = "parameter", value = "posterior")  

posteriors6

## # A tibble: 4,000 x 2
##    parameter           posterior
##    <chr>                   <dbl>
##  1 b_trial_typeTypical    -0.441
##  2 b_trial_typeTypical    -0.344
##  3 b_trial_typeTypical    -0.241
##  4 b_trial_typeTypical    -1.65 
##  5 b_trial_typeTypical    -2.97 
##  6 b_trial_typeTypical    -1.87 
##  7 b_trial_typeTypical     0.482
##  8 b_trial_typeTypical     0.714
##  9 b_trial_typeTypical     0.183
## 10 b_trial_typeTypical     1.69 
## # ... with 3,990 more rows
…
## # A tibble: 2 x 4
##   parameter mean_posterior `95lowerCrI` `95higherCrI`
##   <chr>              <dbl>        <dbl>         <dbl>
## 1 Atypical           1.08         0.431         1.75 
## 2 Typical           -0.330       -0.922         0.288

# Extract the posteriors
posteriors7 <- model_hypo7 %>%
  spread_draws(b_trial_typeTypical) %>%
  select(b_trial_typeTypical) %>% 
  gather(key = "parameter", value = "posterior")  

posteriors7

## # A tibble: 4,000 x 2
##    parameter           posterior
##    <chr>                   <dbl>
##  1 b_trial_typeTypical    -0.958
##  2 b_trial_typeTypical    -1.45 
##  3 b_trial_typeTypical    -1.20 
##  4 b_trial_typeTypical    -1.32 
##  5 b_trial_typeTypical    -1.15 
##  6 b_trial_typeTypical    -1.53 
##  7 b_trial_typeTypical    -0.874
##  8 b_trial_typeTypical    -1.72 
##  9 b_trial_typeTypical    -1.43 
## 10 b_trial_typeTypical    -1.18 
## # ... with 3,990 more rows

posterior7_agg <- posteriors7 %>% 
  mutate(mean_posterior = mean(posterior))

posterior7_agg

## # A tibble: 4,000 x 3
##    parameter           posterior mean_posterior
##    <chr>                   <dbl>          <dbl>
##  1 b_trial_typeTypical    -0.958          -1.41
##  2 b_trial_typeTypical    -1.45           -1.41
##  3 b_trial_typeTypical    -1.20           -1.41
##  4 b_trial_typeTypical    -1.32           -1.41
##  5 b_trial_typeTypical    -1.15           -1.41
##  6 b_trial_typeTypical    -1.53           -1.41
##  7 b_trial_typeTypical    -0.874          -1.41
##  8 b_trial_typeTypical    -1.72           -1.41
##  9 b_trial_typeTypical    -1.43           -1.41
## 10 b_trial_typeTypical    -1.18           -1.41
## # ... with 3,990 more rows
…
