Original Study: Data Cleaning
…
xdata_main

## # A tibble: 80 x 38
##    submission_id    MI QUD      RT   age comments correct correctness education
##            <dbl> <dbl> <lgl> <dbl> <dbl> <chr>    <chr>   <chr>       <chr>    
##  1          1993   452 NA     2023    19 Brunico~ Mammal  Incorrect   Graduate~
##  2          1993    29 NA     1606    19 Brunico~ Amphib~ Incorrect   Graduate~
##  3          1993   264 NA     1550    19 Brunico~ Reptile Correct     Graduate~
##  4          1993   638 NA     1338    19 Brunico~ Mammal  Correct     Graduate~
##  5          1993   416 NA     1570    19 Brunico~ Fish    Correct     Graduate~
##  6          1993    13 NA     2636    19 Brunico~ Fish    Correct     Graduate~
##  7          1993    78 NA     1862    19 Brunico~ Mammal  Correct     Graduate~
##  8          1993   150 NA     1548    19 Brunico~ Bird    Correct     Graduate~
##  9          1993   490 NA     1263    19 Brunico~ Mammal  Correct     Graduate~
## 10          1993   603 NA     1216    19 Brunico~ Fish    Correct     Graduate~
## # ... with 70 more rows, and 29 more variables: endTime <dbl>,
## #   experiment_id <dbl>, gender <chr>, languages <chr>,
## #   mousetrackingDuration <dbl>, mousetrackingStartTime <dbl>,
## #   timestamps_get_response <chr>, mousetrackingTime <chr>,
## #   xpos_get_response <chr>, mousetrackingX <chr>, ypos_get_response <chr>,
## #   mousetrackingY <chr>, movementDirection <dbl>, option1 <chr>,
## #   option2 <chr>, originX <dbl>, originY <dbl>, question <chr>,
## #   response <chr>, startDate <chr>, startTime <dbl>, startingTime <dbl>,
## #   timeSpent <dbl>, traveledDistance <dbl>, trial_name <chr>,
…
xdata_animal <- xdata_main %>% 
  #only taking correct trials into account
  filter(correctness == "Correct") %>%  
  # taking out subjects who are faster than 500 ms and slower than 1 min
  subset(RT >= 500 & RT <= 60000) %>% 
  #taking out the Seaturtle - because we messed it up! Seaturtles are not amphibians :D
  subset(question != "Seaturtle") %>% 
  #taking out for analysis non-relevant variables
  select(-c(QUD, age, comments, education, MI, gender, languages, experiment_id,option1, option2, response,
            trial_name, trial_number, hand_question, mouse_question))

xdata_animal

## # A tibble: 65 x 23
##    submission_id    RT correct correctness endTime mousetrackingDu~
##            <dbl> <dbl> <chr>   <chr>         <dbl>            <dbl>
##  1          1993  1550 Reptile Correct     1.60e14             1522
##  2          1993  1338 Mammal  Correct     1.60e14             1273
##  3          1993  1570 Fish    Correct     1.60e14             1481
##  4          1993  2636 Fish    Correct     1.60e14             2579
##  5          1993  1862 Mammal  Correct     1.60e14             1813
##  6          1993  1548 Bird    Correct     1.60e14             1464
##  7          1993  1263 Mammal  Correct     1.60e14             1227
##  8          1993  1216 Fish    Correct     1.60e14             1141
##  9          1993  1598 Reptile Correct     1.60e14             1535
## 10          1993  1688 Amphib~ Correct     1.60e14             1677
## # ... with 55 more rows, and 17 more variables: mousetrackingStartTime <dbl>,
## #   timestamps_get_response <chr>, mousetrackingTime <chr>,
## #   xpos_get_response <chr>, mousetrackingX <chr>, ypos_get_response <chr>,
## #   mousetrackingY <chr>, movementDirection <dbl>, originX <dbl>,
## #   originY <dbl>, question <chr>, startDate <chr>, startTime <dbl>,
## #   startingTime <dbl>, timeSpent <dbl>, traveledDistance <dbl>,
## #   typicality <chr>
…
Fig.4: The graph displays the given trajectories from the data for each cluster type.

#store mousetrap object in results
results <- merge(mt_data_animal$data, mt_data_animal$measures, by="mt_id")

#export results in long format for further analysis 
agg_xdata_animal <- mt_export_long(results)

#as tibble for easier handling
as.tibble(agg_xdata_animal)

## # A tibble: 65 x 57
##    mt_id submission_id  RT.x correct correctness endTime mousetrackingDu~
##    <chr>         <dbl> <dbl> <chr>   <chr>         <dbl>            <dbl>
##  1 1              1993  1550 Reptile Correct     1.60e14             1522
##  2 2              1993  1338 Mammal  Correct     1.60e14             1273
##  3 3              1993  1570 Fish    Correct     1.60e14             1481
##  4 4              1993  2636 Fish    Correct     1.60e14             2579
##  5 5              1993  1862 Mammal  Correct     1.60e14             1813
##  6 6              1993  1548 Bird    Correct     1.60e14             1464
##  7 7              1993  1263 Mammal  Correct     1.60e14             1227
##  8 8              1993  1216 Fish    Correct     1.60e14             1141
##  9 9              1993  1598 Reptile Correct     1.60e14             1535
## 10 10             1993  1688 Amphib~ Correct     1.60e14             1677
## # ... with 55 more rows, and 50 more variables: mousetrackingStartTime <dbl>,
## #   mousetrackingTime <chr>, mousetrackingX <chr>, mousetrackingY <chr>,
## #   movementDirection <dbl>, originX <dbl>, originY <dbl>, question <chr>,
## #   startDate <chr>, startTime <dbl>, startingTime <dbl>, timeSpent <dbl>,
## #   traveledDistance <dbl>, typicality <chr>, prototype_label.x <fct>,
## #   xpos_max <dbl>, xpos_min <dbl>, ypos_max <dbl>, ypos_min <dbl>, MAD <dbl>,
## #   MAD_time <dbl>, MD_above <dbl>, MD_above_time <dbl>, MD_below <dbl>,
## #   MD_below_time <dbl>, AD <dbl>, AUC <dbl>, xpos_flips <dbl>,
## #   ypos_flips <dbl>, xpos_reversals <dbl>, ypos_reversals <dbl>, RT.y <dbl>,
…
