Capital Study: Data Cleaning
…
Participants who make incorrect category judgements in all three practice trials will be discarded

Data of participants who only have an accuracy of 50% will not be taken into account

Exclude all data from participants who complete the experiment in under 500 ms or take longer than 6000 ms

Trials which contain more than three flips along the y-axis will be taken out from the analysis

#import data 
xdata_raw_capital <- read_csv("Results_Table_Pilot_Mousetrap_filtered.csv")

xdata_raw_capital

## # A tibble: 394 x 36
##    submission_id    MI QUD      RT   age comments correct correctness education
##            <dbl> <dbl> <lgl> <dbl> <dbl> <chr>    <chr>   <chr>       <chr>    
##  1          1993    NA NA     2982    19 Brunico~ <NA>    <NA>        Graduate~
##  2          1993    NA NA     2906    19 Brunico~ <NA>    <NA>        Graduate~
##  3          1993  1134 NA     3382    19 Brunico~ Mammal  Correct     Graduate~
##  4          1993    56 NA      970    19 Brunico~ Mammal  Incorrect   Graduate~
##  5          1993   491 NA     1569    19 Brunico~ Mammal  Correct     Graduate~
##  6          1993   452 NA     2023    19 Brunico~ Mammal  Incorrect   Graduate~
##  7          1993    29 NA     1606    19 Brunico~ Amphib~ Incorrect   Graduate~
##  8          1993   264 NA     1550    19 Brunico~ Reptile Correct     Graduate~
##  9          1993   638 NA     1338    19 Brunico~ Mammal  Correct     Graduate~
## 10          1993   416 NA     1570    19 Brunico~ Fish    Correct     Graduate~
## # ... with 384 more rows, and 27 more variables: endTime <dbl>,
## #   experiment_id <dbl>, gender <chr>, languages <chr>,
## #   mousetrackingDuration <dbl>, mousetrackingStartTime <dbl>,
## #   timestamps_get_response <chr>, mousetrackingTime <chr>,
## #   xpos_get_response <chr>, mousetrackingX <chr>, ypos_get_response <chr>,
## #   mousetrackingY <chr>, movementDirection <dbl>, option1 <chr>,
## #   option2 <chr>, originX <dbl>, originY <dbl>, question <chr>,
## #   response <chr>, startDate <chr>, startTime <dbl>, startingTime <dbl>,
## #   timeSpent <dbl>, traveledDistance <dbl>, trial_name <chr>,
…
xdata_main

## # A tibble: 70 x 38
##    submission_id    MI QUD      RT   age comments correct correctness education
##            <dbl> <dbl> <lgl> <dbl> <dbl> <chr>    <chr>   <chr>       <chr>    
##  1          1993   570 NA     1550    19 Brunico~ Non-Ca~ Correct     Graduate~
##  2          1993    70 NA     3232    19 Brunico~ Non-Ca~ Correct     Graduate~
##  3          1993    66 NA     1810    19 Brunico~ Capital Correct     Graduate~
##  4          1993    27 NA     1678    19 Brunico~ Capital Correct     Graduate~
##  5          1993   396 NA     1010    19 Brunico~ Capital Correct     Graduate~
##  6          1993    64 NA     1062    19 Brunico~ Capital Correct     Graduate~
##  7          1993    21 NA     5192    19 Brunico~ Capital Correct     Graduate~
##  8          1993   541 NA     1575    19 Brunico~ Non-Ca~ Incorrect   Graduate~
##  9          1993   142 NA     3592    19 Brunico~ Non-Ca~ Correct     Graduate~
## 10          1993    31 NA     1866    19 Brunico~ Non-Ca~ Correct     Graduate~
## # ... with 60 more rows, and 29 more variables: endTime <dbl>,
## #   experiment_id <dbl>, gender <chr>, languages <chr>,
## #   mousetrackingDuration <dbl>, mousetrackingStartTime <dbl>,
## #   timestamps_get_response <chr>, mousetrackingTime <chr>,
## #   xpos_get_response <chr>, mousetrackingX <chr>, ypos_get_response <chr>,
## #   mousetrackingY <chr>, movementDirection <dbl>, option1 <chr>,
## #   option2 <chr>, originX <dbl>, originY <dbl>, question <chr>,
## #   response <chr>, startDate <chr>, startTime <dbl>, startingTime <dbl>,
## #   timeSpent <dbl>, traveledDistance <dbl>, trial_name <chr>,
…
##4. Exclude all data from participants who complete the experiment in under 500 ms or take longer than 6000 ms
##5.The final analysis will only concern itself with correct trial

xdata_capital <- xdata_main %>% 
  #only taking correct trials into account
  filter(correctness == "Correct") %>%  
  # taking out subjects who are faster than 500 ms and slower than 1 min
  subset(RT >= 500 & RT <= 60000) %>% 
  #taking out for analysis non-relevant variables
  select(-c(QUD, age, comments, education, MI, gender, languages, experiment_id,option1, option2, response,
            trial_name, trial_number, hand_question, mouse_question))

xdata_capital

## # A tibble: 53 x 23
##    submission_id    RT correct correctness endTime mousetrackingDu~
##            <dbl> <dbl> <chr>   <chr>         <dbl>            <dbl>
##  1          1993  1550 Non-Ca~ Correct     1.60e14             1518
##  2          1993  3232 Non-Ca~ Correct     1.60e14             3192
##  3          1993  1810 Capital Correct     1.60e14             1773
##  4          1993  1678 Capital Correct     1.60e14             1577
##  5          1993  1010 Capital Correct     1.60e14              931
##  6          1993  1062 Capital Correct     1.60e14              986
##  7          1993  5192 Capital Correct     1.60e14             5081
##  8          1993  3592 Non-Ca~ Correct     1.60e14             2970
##  9          1993  1866 Non-Ca~ Correct     1.60e14             1786
## 10          1993  6388 Non-Ca~ Correct     1.60e14             4890
## # ... with 43 more rows, and 17 more variables: mousetrackingStartTime <dbl>,
## #   timestamps_get_response <chr>, mousetrackingTime <chr>,
## #   xpos_get_response <chr>, mousetrackingX <chr>, ypos_get_response <chr>,
## #   mousetrackingY <chr>, movementDirection <dbl>, originX <dbl>,
## #   originY <dbl>, question <chr>, startDate <chr>, startTime <dbl>,
## #   startingTime <dbl>, timeSpent <dbl>, traveledDistance <dbl>,
## #   typicality <chr>
…
