Capital Study: Data Cleaning
…
Data of participants who only have an accuracy of 50% will not be taken into account

Exclude all data from participants who complete the experiment in under 500 ms or take longer than 60000 ms

Trials which contain more than three flips along the y-axis will be taken out from the analysis

Exclude trail with seaturtle - (because we messed that one up)

#import data 
xdata_raw <- read_delim("Results_Table_Main.csv", 
    ";", escape_double = FALSE, trim_ws = TRUE)

as.tibble(xdata_raw)

## # A tibble: 2,561 x 33
##    submission_id    MI QUD      RT   age comments correct correctness education
##            <dbl> <dbl> <lgl> <dbl> <dbl> <chr>    <chr>   <chr>       <chr>    
##  1          2141    NA NA     3179    24 <NA>     <NA>    <NA>        Graduate~
##  2          2141    NA NA     2318    24 <NA>     <NA>    <NA>        Graduate~
##  3          2141    10 NA     3157    24 <NA>     Mammal  Correct     Graduate~
##  4          2141   355 NA     2186    24 <NA>     Mammal  Correct     Graduate~
##  5          2141   659 NA     1214    24 <NA>     Mammal  Correct     Graduate~
##  6          2141   447 NA     1778    24 <NA>     Reptile Correct     Graduate~
##  7          2141   525 NA     1338    24 <NA>     Fish    Correct     Graduate~
##  8          2141   471 NA     1692    24 <NA>     Reptile Correct     Graduate~
##  9          2141   385 NA     1323    24 <NA>     Bird    Correct     Graduate~
## 10          2141   409 NA     1662    24 <NA>     Fish    Correct     Graduate~
## # ... with 2,551 more rows, and 24 more variables: endTime <dbl>,
## #   experiment_id <dbl>, gender <chr>, languages <chr>,
## #   mousetrackingDuration <dbl>, mousetrackingStartTime <dbl>,
## #   timestamps_get_response <chr>, xpos_get_response <chr>,
## #   ypos_get_response <chr>, movementDirection <dbl>, option1 <chr>,
## #   option2 <chr>, originX <dbl>, originY <dbl>, question <chr>,
## #   response <chr>, startDate <chr>, startTime <dbl>, startingTime <dbl>,
## #   timeSpent <dbl>, traveledDistance <dbl>, trial_name <chr>,
## #   trial_number <dbl>, typicality <chr>
…
DATA EXCLUSION

##1. Excluding all left-handed participants

#create handedness table to merge with actual data 
#necessary in order to filter out left handed participants
xdata_handedness <- xdata_new_capital %>% 
  select(submission_id, response, trial_name) %>% 
  filter(trial_name == "mouse_question" | trial_name == "hand_question") %>% 
  spread(trial_name, response)  
   
xdata_handedness

## # A tibble: 57 x 3
##    submission_id hand_question mouse_question
##            <dbl> <chr>         <chr>         
##  1          2062 Right         Mouse         
##  2          2063 Right         Mouse         
##  3          2065 Left          Touch         
##  4          2066 Right         Touch         
##  5          2067 Right         Mouse         
##  6          2069 Right         Mouse         
##  7          2076 Right         Touch         
##  8          2078 Right         Mouse         
##  9          2091 Right         Touch         
## 10          2092 Left          Mouse         
## # ... with 47 more rows
…
#taking only the relevant participants for the pilot study 
#excluding left-handed participants
#only taking main trials
xdata_main <- xdata_new_capital %>% 
  #we only take the data from the capital study
  filter(correct == "Capital" | correct == "Non-Capital") %>% 
  #merge xdata with xdata_handedness
  full_join(xdata_handedness) %>% 
  #take all right handed participants
  filter(hand_question == "Right") 

xdata_main

## # A tibble: 742 x 35
##    submission_id    MI QUD      RT   age comments correct correctness education
##            <dbl> <dbl> <lgl> <dbl> <dbl> <chr>    <chr>   <chr>       <chr>    
##  1          2141   361 NA     1048    24 <NA>     Capital Correct     Graduate~
##  2          2141   305 NA     1364    24 <NA>     Capital Correct     Graduate~
##  3          2141   173 NA     1518    24 <NA>     Capital Correct     Graduate~
##  4          2141   518 NA     1706    24 <NA>     Non-Ca~ Correct     Graduate~
##  5          2141   394 NA     1042    24 <NA>     Capital Correct     Graduate~
##  6          2141   432 NA     1362    24 <NA>     Non-Ca~ Correct     Graduate~
##  7          2141    18 NA      919    24 <NA>     Capital Correct     Graduate~
##  8          2141   236 NA     1244    24 <NA>     Capital Correct     Graduate~
##  9          2141   269 NA     1590    24 <NA>     Non-Ca~ Correct     Graduate~
## 10          2141   142 NA     1573    24 <NA>     Non-Ca~ Correct     Graduate~
## # ... with 732 more rows, and 26 more variables: endTime <dbl>,
## #   experiment_id <dbl>, gender <chr>, languages <chr>,
## #   mousetrackingDuration <dbl>, mousetrackingStartTime <dbl>,
## #   timestamps_get_response <chr>, xpos_get_response <chr>,
## #   ypos_get_response <chr>, movementDirection <dbl>, option1 <chr>,
## #   option2 <chr>, originX <dbl>, originY <dbl>, question <chr>,
## #   response <chr>, startDate <chr>, startTime <dbl>, startingTime <dbl>,
## #   timeSpent <dbl>, traveledDistance <dbl>, trial_name <chr>,
## #   trial_number <dbl>, typicality <chr>, hand_question <chr>,
…
##4. Exclude all data from participants who complete the experiment in under 500 ms or take longer than 6000 ms
##5.The final analysis will only concern itself with correct trial

xdata_capital <- xdata_main %>% 
  #only taking correct trials into account
  filter(correctness == "Correct") %>%  
  # taking out subjects who are faster than 500 ms and slower than 1 min
  subset(RT >= 500 & RT <= 60000 & submission_id != "2129") %>% 
  #taking out for analysis non-relevant variables
  select(-c(QUD, age, comments, education, MI, gender, languages, experiment_id,option1, option2, response,
            trial_name, trial_number, hand_question, mouse_question))

xdata_capital

## # A tibble: 588 x 20
##    submission_id    RT correct correctness endTime mousetrackingDu~
##            <dbl> <dbl> <chr>   <chr>         <dbl>            <dbl>
##  1          2141  1048 Capital Correct     1.60e12              901
##  2          2141  1364 Capital Correct     1.60e12             1204
##  3          2141  1518 Capital Correct     1.60e12             1405
##  4          2141  1706 Non-Ca~ Correct     1.60e12             1591
##  5          2141  1042 Capital Correct     1.60e12              856
##  6          2141  1362 Non-Ca~ Correct     1.60e12             1336
##  7          2141   919 Capital Correct     1.60e12              784
##  8          2141  1244 Capital Correct     1.60e12             1183
##  9          2141  1590 Non-Ca~ Correct     1.60e12             1590
## 10          2141  1573 Non-Ca~ Correct     1.60e12             1351
## # ... with 578 more rows, and 14 more variables: mousetrackingStartTime <dbl>,
## #   timestamps_get_response <chr>, xpos_get_response <chr>,
## #   ypos_get_response <chr>, movementDirection <dbl>, originX <dbl>,
## #   originY <dbl>, question <chr>, startDate <chr>, startTime <dbl>,
## #   startingTime <dbl>, timeSpent <dbl>, traveledDistance <dbl>,
## #   typicality <chr>
…
