Capital Study: Data Cleaning
…
## # A tibble: 2 x 4
##   parameter mean_posterior `95lowerCrI` `95higherCrI`
##   <chr>              <dbl>        <dbl>         <dbl>
## 1 Atypical          0.0231       -0.155         0.212
## 2 Typical           0.0166       -0.148         0.195

# Extract the posteriors
posteriors1 <- model_hypo1 %>%
  spread_draws(b_trial_typeTypical) %>%
  select(b_trial_typeTypical) %>% 
  gather(key = "parameter", value = "posterior")  

posteriors1

## # A tibble: 4,000 x 2
##    parameter           posterior
##    <chr>                   <dbl>
##  1 b_trial_typeTypical   -0.0230
##  2 b_trial_typeTypical    0.136 
##  3 b_trial_typeTypical    0.0214
##  4 b_trial_typeTypical    0.0316
##  5 b_trial_typeTypical    0.0237
##  6 b_trial_typeTypical   -0.143 
##  7 b_trial_typeTypical    0.115 
##  8 b_trial_typeTypical    0.197 
##  9 b_trial_typeTypical    0.0296
## 10 b_trial_typeTypical    0.0528
## # ... with 3,990 more rows

posterior1_agg <- posteriors1 %>% 
  mutate(mean_posterior = mean(posterior))

posterior1_agg

## # A tibble: 4,000 x 3
##    parameter           posterior mean_posterior
##    <chr>                   <dbl>          <dbl>
##  1 b_trial_typeTypical   -0.0230       -0.00654
##  2 b_trial_typeTypical    0.136        -0.00654
##  3 b_trial_typeTypical    0.0214       -0.00654
##  4 b_trial_typeTypical    0.0316       -0.00654
##  5 b_trial_typeTypical    0.0237       -0.00654
##  6 b_trial_typeTypical   -0.143        -0.00654
##  7 b_trial_typeTypical    0.115        -0.00654
##  8 b_trial_typeTypical    0.197        -0.00654
##  9 b_trial_typeTypical    0.0296       -0.00654
## 10 b_trial_typeTypical    0.0528       -0.00654
## # ... with 3,990 more rows
…
## # A tibble: 2 x 4
##   parameter mean_posterior `95lowerCrI` `95higherCrI`
##   <chr>              <dbl>        <dbl>         <dbl>
## 1 Atypical         0.0555        -0.130         0.223
## 2 Typical          0.00694       -0.164         0.158

# Extract the posteriors
posteriors2 <- model_hypo2 %>%
  spread_draws(b_trial_typeTypical) %>%
  select(b_trial_typeTypical) %>% 
  gather(key = "parameter", value = "posterior")  

posteriors2

## # A tibble: 4,000 x 2
##    parameter           posterior
##    <chr>                   <dbl>
##  1 b_trial_typeTypical  -0.238  
##  2 b_trial_typeTypical  -0.300  
##  3 b_trial_typeTypical  -0.0591 
##  4 b_trial_typeTypical   0.00648
##  5 b_trial_typeTypical  -0.0654 
##  6 b_trial_typeTypical  -0.0591 
##  7 b_trial_typeTypical  -0.126  
##  8 b_trial_typeTypical  -0.0817 
##  9 b_trial_typeTypical   0.00623
## 10 b_trial_typeTypical   0.0147 
## # ... with 3,990 more rows

posterior2_agg <- posteriors2 %>% 
  mutate(mean_posterior = mean(posterior))

posterior2_agg

## # A tibble: 4,000 x 3
##    parameter           posterior mean_posterior
##    <chr>                   <dbl>          <dbl>
##  1 b_trial_typeTypical  -0.238          -0.0486
##  2 b_trial_typeTypical  -0.300          -0.0486
##  3 b_trial_typeTypical  -0.0591         -0.0486
##  4 b_trial_typeTypical   0.00648        -0.0486
##  5 b_trial_typeTypical  -0.0654         -0.0486
##  6 b_trial_typeTypical  -0.0591         -0.0486
##  7 b_trial_typeTypical  -0.126          -0.0486
##  8 b_trial_typeTypical  -0.0817         -0.0486
##  9 b_trial_typeTypical   0.00623        -0.0486
## 10 b_trial_typeTypical   0.0147         -0.0486
## # ... with 3,990 more rows
…
## # A tibble: 2 x 4
##   parameter mean_posterior `95lowerCrI` `95higherCrI`
##   <chr>              <dbl>        <dbl>         <dbl>
## 1 Atypical           0.417        0.150        0.661 
## 2 Typical           -0.254       -0.516       -0.0105

# Extract the posteriors
posteriors3 <- model_hypo3 %>%
  spread_draws(b_trial_typeTypical) %>%
  select(b_trial_typeTypical) %>% 
  gather(key = "parameter", value = "posterior")  

posteriors3

## # A tibble: 4,000 x 2
##    parameter           posterior
##    <chr>                   <dbl>
##  1 b_trial_typeTypical    -1.06 
##  2 b_trial_typeTypical    -1.11 
##  3 b_trial_typeTypical    -0.668
##  4 b_trial_typeTypical    -0.681
##  5 b_trial_typeTypical    -0.409
##  6 b_trial_typeTypical    -0.422
##  7 b_trial_typeTypical    -0.400
##  8 b_trial_typeTypical    -0.422
##  9 b_trial_typeTypical    -0.268
## 10 b_trial_typeTypical    -0.204
## # ... with 3,990 more rows

posterior3_agg <- posteriors3 %>% 
  mutate(mean_posterior = mean(posterior))

posterior3_agg

## # A tibble: 4,000 x 3
##    parameter           posterior mean_posterior
##    <chr>                   <dbl>          <dbl>
##  1 b_trial_typeTypical    -1.06          -0.671
##  2 b_trial_typeTypical    -1.11          -0.671
##  3 b_trial_typeTypical    -0.668         -0.671
##  4 b_trial_typeTypical    -0.681         -0.671
##  5 b_trial_typeTypical    -0.409         -0.671
##  6 b_trial_typeTypical    -0.422         -0.671
##  7 b_trial_typeTypical    -0.400         -0.671
##  8 b_trial_typeTypical    -0.422         -0.671
##  9 b_trial_typeTypical    -0.268         -0.671
## 10 b_trial_typeTypical    -0.204         -0.671
## # ... with 3,990 more rows
…
## # A tibble: 2 x 4
##   parameter mean_posterior `95lowerCrI` `95higherCrI`
##   <chr>              <dbl>        <dbl>         <dbl>
## 1 Atypical            7.74         7.62          7.84
## 2 Typical             7.45         7.34          7.56

# Extract the posteriors
posteriors5 <- model_hypo5 %>%
  spread_draws(b_trial_typeTypical) %>%
  select(b_trial_typeTypical) %>% 
  gather(key = "parameter", value = "posterior")  

posteriors5

## # A tibble: 4,000 x 2
##    parameter           posterior
##    <chr>                   <dbl>
##  1 b_trial_typeTypical    -0.279
##  2 b_trial_typeTypical    -0.409
##  3 b_trial_typeTypical    -0.273
##  4 b_trial_typeTypical    -0.271
##  5 b_trial_typeTypical    -0.228
##  6 b_trial_typeTypical    -0.363
##  7 b_trial_typeTypical    -0.378
##  8 b_trial_typeTypical    -0.426
##  9 b_trial_typeTypical    -0.485
## 10 b_trial_typeTypical    -0.273
## # ... with 3,990 more rows

posterior5_agg <- posteriors5 %>% 
  mutate(mean_posterior = mean(posterior))

posterior5_agg

## # A tibble: 4,000 x 3
##    parameter           posterior mean_posterior
##    <chr>                   <dbl>          <dbl>
##  1 b_trial_typeTypical    -0.279         -0.287
##  2 b_trial_typeTypical    -0.409         -0.287
##  3 b_trial_typeTypical    -0.273         -0.287
##  4 b_trial_typeTypical    -0.271         -0.287
##  5 b_trial_typeTypical    -0.228         -0.287
##  6 b_trial_typeTypical    -0.363         -0.287
##  7 b_trial_typeTypical    -0.378         -0.287
##  8 b_trial_typeTypical    -0.426         -0.287
##  9 b_trial_typeTypical    -0.485         -0.287
## 10 b_trial_typeTypical    -0.273         -0.287
## # ... with 3,990 more rows
…
## # A tibble: 2 x 4
##   parameter mean_posterior `95lowerCrI` `95higherCrI`
##   <chr>              <dbl>        <dbl>         <dbl>
## 1 Atypical           0.164      -0.0368        0.387 
## 2 Typical           -0.150      -0.382         0.0524

# Extract the posteriors
posteriors6 <- model_hypo6 %>%
  spread_draws(b_trial_typeTypical) %>%
  select(b_trial_typeTypical) %>% 
  gather(key = "parameter", value = "posterior")  

posteriors6

## # A tibble: 4,000 x 2
##    parameter           posterior
##    <chr>                   <dbl>
##  1 b_trial_typeTypical   -0.220 
##  2 b_trial_typeTypical   -0.332 
##  3 b_trial_typeTypical   -0.281 
##  4 b_trial_typeTypical   -0.0864
##  5 b_trial_typeTypical   -0.151 
##  6 b_trial_typeTypical   -0.119 
##  7 b_trial_typeTypical   -0.213 
##  8 b_trial_typeTypical   -0.205 
##  9 b_trial_typeTypical   -0.0298
## 10 b_trial_typeTypical   -0.179 
## # ... with 3,990 more rows

posterior6_agg <- posteriors6 %>% 
  mutate(mean_posterior = mean(posterior))

posterior6_agg

## # A tibble: 4,000 x 3
##    parameter           posterior mean_posterior
##    <chr>                   <dbl>          <dbl>
##  1 b_trial_typeTypical   -0.220          -0.314
##  2 b_trial_typeTypical   -0.332          -0.314
##  3 b_trial_typeTypical   -0.281          -0.314
##  4 b_trial_typeTypical   -0.0864         -0.314
##  5 b_trial_typeTypical   -0.151          -0.314
##  6 b_trial_typeTypical   -0.119          -0.314
##  7 b_trial_typeTypical   -0.213          -0.314
##  8 b_trial_typeTypical   -0.205          -0.314
##  9 b_trial_typeTypical   -0.0298         -0.314
## 10 b_trial_typeTypical   -0.179          -0.314
## # ... with 3,990 more rows
…
## # A tibble: 2 x 4
##   parameter mean_posterior `95lowerCrI` `95higherCrI`
##   <chr>              <dbl>        <dbl>         <dbl>
## 1 Atypical          0.233      -0.00945         0.460
## 2 Typical          -0.0396     -0.264           0.194

# Extract the posteriors
posteriors7 <- model_hypo7 %>%
  spread_draws(b_trial_typeTypical) %>%
  select(b_trial_typeTypical) %>% 
  gather(key = "parameter", value = "posterior")  

posteriors7

## # A tibble: 4,000 x 2
##    parameter           posterior
##    <chr>                   <dbl>
##  1 b_trial_typeTypical    -0.241
##  2 b_trial_typeTypical    -0.286
##  3 b_trial_typeTypical    -0.336
##  4 b_trial_typeTypical    -0.393
##  5 b_trial_typeTypical    -0.348
##  6 b_trial_typeTypical    -0.259
##  7 b_trial_typeTypical    -0.472
##  8 b_trial_typeTypical    -0.452
##  9 b_trial_typeTypical    -0.419
## 10 b_trial_typeTypical    -0.481
## # ... with 3,990 more rows

posterior7_agg <- posteriors7 %>% 
  mutate(mean_posterior = mean(posterior))

posterior7_agg

## # A tibble: 4,000 x 3
##    parameter           posterior mean_posterior
##    <chr>                   <dbl>          <dbl>
##  1 b_trial_typeTypical    -0.241         -0.273
##  2 b_trial_typeTypical    -0.286         -0.273
##  3 b_trial_typeTypical    -0.336         -0.273
##  4 b_trial_typeTypical    -0.393         -0.273
##  5 b_trial_typeTypical    -0.348         -0.273
##  6 b_trial_typeTypical    -0.259         -0.273
##  7 b_trial_typeTypical    -0.472         -0.273
##  8 b_trial_typeTypical    -0.452         -0.273
##  9 b_trial_typeTypical    -0.419         -0.273
## 10 b_trial_typeTypical    -0.481         -0.273
## # ... with 3,990 more rows
…
